<?xml version="1.0" encoding="utf-8"?>
<!-- Generator: Adobe Illustrator 19.0.0, SVG Export Plug-In . SVG Version: 6.00 Build 0)  -->
<svg version="1.2" baseProfile="tiny" id="Calque_1"
	 xmlns="http://www.w3.org/2000/svg" xmlns:xlink="http://www.w3.org/1999/xlink" x="0px" y="0px" viewBox="0 0 64 64"
	 xml:space="preserve">
<path id="XMLID_6_" class="cursor" stroke="#000000" stroke-width="0.9934" stroke-linejoin="bevel" stroke-miterlimit="10" d="
	M44.2,38.8c-1.7-10-9.8-24.7-11.8-28.3C32.1,10,32,9.8,31.9,9.7c0,0,0,0,0,0V9.1c0,0-10.4,18.2-12.4,29.5
	c-1.9,11,4.4,15.6,12.4,15.6C39.8,54.2,46,49.6,44.2,38.8z"/>
</svg>
